r (Angstroms)		Energy (hartrees)
--------------------------------------------------
0.400000000000000	-0.976798125297645
0.500000000000000	-1.100869770567898
0.600000000000000	-1.153517976992553
0.700000000000000	-1.171014611491842
0.800000000000000	-1.170406254407191
0.900000000000000	-1.160412786280990
1.000000000000000	-1.145758813825982
1.100000000000000	-1.129119870077057
1.200000000000000	-1.112067541332630
1.300000000000000	-1.095549013746680
--------------------------------------------------
